<?xml version="1.0" encoding="UTF-8" standalone="no"?>
<!-- Created with Inkscape (http://www.inkscape.org/) -->

<svg
   xmlns:dc="http://purl.org/dc/elements/1.1/"
   xmlns:cc="http://creativecommons.org/ns#"
   xmlns:rdf="http://www.w3.org/1999/02/22-rdf-syntax-ns#"
   xmlns:svg="http://www.w3.org/2000/svg"
   xmlns="http://www.w3.org/2000/svg"
   xmlns:sodipodi="http://sodipodi.sourceforge.net/DTD/sodipodi-0.dtd"
   xmlns:inkscape="http://www.inkscape.org/namespaces/inkscape"
   inkscape:version="0.92.3 (2405546, 2018-03-11)"
   sodipodi:docname="chark.svg"
   id="svg8"
   version="1.1"
   viewBox="0 0 96.519997 128.69331"
   height="128.69331mm"
   width="96.519997mm">
  <defs
     id="defs2" />
  <sodipodi:namedview
     inkscape:snap-others="false"
     inkscape:object-nodes="false"
     inkscape:snap-midpoints="false"
     inkscape:object-paths="true"
     inkscape:window-maximized="1"
     inkscape:window-y="-8"
     inkscape:window-x="-8"
     inkscape:window-height="1017"
     inkscape:window-width="1920"
     showgrid="false"
     inkscape:current-layer="layer1"
     inkscape:document-units="mm"
     inkscape:cy="246.44928"
     inkscape:cx="178.91027"
     inkscape:zoom="1.7255175"
     inkscape:pageshadow="2"
     inkscape:pageopacity="0.0"
     borderopacity="1.0"
     bordercolor="#666666"
     pagecolor="#ffffff"
     id="base"
     inkscape:measure-start="0,0"
     inkscape:measure-end="0,0" />
  <metadata
     id="metadata5">
    <rdf:RDF>
      <cc:Work
         rdf:about="">
        <dc:format>image/svg+xml</dc:format>
        <dc:type
           rdf:resource="http://purl.org/dc/dcmitype/StillImage" />
        <dc:title></dc:title>
      </cc:Work>
    </rdf:RDF>
  </metadata>
  <g
     inkscape:label="Layer 1"
     inkscape:groupmode="layer"
     id="layer1"
     transform="translate(4.9185432e-5,-168.30671)">
    <a
       id="a4548"
       transform="translate(-1.9853822,-3.8384056)"
       style="fill:#dda0dd;stroke:none">
      <g
         style="fill:#dda0dd;stroke:none"
         id="g4546">
        <g
           id="g4555"
           style="fill:#dda0dd;stroke:none">
          <path
             style="fill:#dda0dd;stroke:none;stroke-width:0.37795275;stroke-linecap:butt;stroke-linejoin:miter;stroke-miterlimit:4;stroke-dasharray:none;stroke-opacity:1"
             d="m 146.53711,17.427734 c -0.39701,-0.0012 -0.79213,0.01313 -1.18359,0.04492 -7.5161,0.610394 -13.97113,7.312102 -17.86524,20.740235 -2.18708,7.541896 -5.15296,17.601288 -6.5918,22.353515 -3.37046,11.132145 -75.600417,82.255866 -83.535152,82.255866 -26.49103,0 -32.4564991,36.33901 -10.291016,62.68164 18.445991,21.92231 48.296875,23.55404 48.296876,2.63867 0,-5.56124 10.772877,-17.63672 15.734374,-17.63672 1.600313,0 6.547572,6.37061 10.996098,14.15625 4.44849,7.78586 11.62629,18.84711 15.94726,24.58398 6.77021,8.98867 8.01716,13.13385 9.03906,29.98438 1.32385,21.82904 8.64176,44.93211 18.03711,56.94726 6.221,7.95542 6.22155,7.95419 -3.17187,5.28516 -12.80082,-3.63779 -34.19121,-3.44843 -45.515626,0.40234 -10.300188,3.50264 -9.979552,5.59145 1.617187,10.47071 4.985699,2.09782 7.738039,5.24068 7.742189,8.83789 0.007,4.19497 4.302,7.52378 17.30664,13.40234 25.39497,11.47956 68.45291,41.73467 70.0625,49.23242 0.72991,3.40018 5.96496,15.988 11.63086,27.97266 9.104,19.25684 10.31205,23.99195 10.40234,40.73828 0.0561,10.42201 0.90772,18.95806 1.89258,18.96875 6.7485,0.0624 22.60635,-45.81546 25.07031,-72.52734 2.36704,-25.65948 3.3339,-28.48596 11.49219,-33.65235 46.12348,-29.20887 65.04106,-101.33695 41.52344,-158.31836 -9.81779,-23.78755 14.00807,-46.16578 49.71094,-46.6914 17.2348,-0.25399 17.15886,-0.19057 9.73242,-8.01563 -25.08726,-26.43201 -82.29544,-46.00972 -108.90039,-37.26367 -13.30992,4.37533 -13.44595,4.35501 -24.33594,-4.13672 -14.54741,-11.34361 -22.28025,-14.8182 -42.53906,-19.11133 -16.98582,-3.59981 -16.98387,-3.60044 -3.64844,-12.35156 15.71435,-10.312403 17.4206,-16.875716 9.64844,-37.128906 -11.12543,-28.990735 -25.99739,-44.826645 -38.30469,-44.86328 z m 1.08203,7.964844 c 3.6795,-0.124042 7.67091,1.709497 11.84961,5.580078 4.52679,4.192857 4.4447,4.37789 -1.93164,4.46875 -29.21621,0.416051 -28.26516,52.909163 1.0625,58.652344 9.69829,1.899137 9.69923,1.897565 0.96875,8.00781 -9.42725,6.59785 -12.41203,13.43728 -9.97461,22.8418 2.21849,8.55999 5.62612,7.36327 4.24414,-1.49024 -1.36537,-8.74667 3.25167,-9.57569 23.61914,-4.22656 13.72358,3.60424 16.65873,14.74952 8.76563,33.2793 -1.92029,4.50754 -2.48842,8.19726 -1.26368,8.19726 3.57808,0 9.6543,-16.7841 9.6543,-26.67187 0,-4.99869 0.38374,-9.08789 0.85352,-9.08789 14.47162,0 19.59268,14.97894 12.73828,37.25 -1.57995,5.13369 -1.12923,4.98351 3.23828,-1.07617 2.78895,-3.86952 5.07031,-10.90695 5.07031,-15.64258 0,-9.30705 2.64603,-11.01341 7.03516,-4.53711 2.10041,3.09944 1.87744,4.97122 -0.92188,7.81641 -4.65464,4.7303 -4.69578,12.14455 -0.10937,19.57421 3.318,5.37521 3.53679,4.95607 3.04492,-5.95898 -1.37845,-30.61232 55.76291,-29.56674 106.37695,1.94727 11.99815,7.47061 11.99815,7.46851 0,9.66211 -22.05983,4.03336 -44.73985,21.69643 -54.0664,42.10546 -1.98502,4.34378 -3.47594,4.58504 -10.33203,1.65821 -11.20404,-4.78326 -12.08661,-1.73568 -1.31836,4.55273 7.35124,4.29305 9.80193,4.56034 13.7832,1.51563 14.57134,-11.14405 24.62549,66.93113 12.69336,98.57031 -7.353,19.49696 -27.86769,45.15502 -47.55274,59.47656 -16.73521,12.17549 -20.23309,16.17979 -11.75586,13.46485 8.48148,-2.71601 6.69773,24.70639 -3.75976,57.81445 -5.49939,17.41088 -8.23506,20.68444 -8.29688,9.90625 -0.028,-4.8353 -3.87851,-17.50777 -8.55664,-28.16211 -4.67812,-10.654 -10.54144,-24.78806 -13.02929,-31.4082 -4.84562,-12.89371 -46.35154,-43.83511 -74.49024,-55.52735 -7.47419,-3.10575 -12.18346,-6.81702 -12.19726,-9.62109 -0.0159,-2.51067 -2.20368,-6.52046 -4.86524,-8.91211 -4.36673,-3.92394 -3.29515,-4.18527 10.97852,-2.67188 24.22654,2.56846 99.74388,30.83991 92.1875,34.51172 -1.85015,0.89904 -0.62742,1.73579 2.71875,1.85938 15.9267,0.58651 26.439,-16.38739 23.20898,-37.47266 -2.17745,-14.21325 -7.39187,-20.36416 -40.41797,-39.90625 -68.62385,-40.60599 -124.734414,-104.95005 -79.89648,-114.84765 12.14252,-2.68045 28.35971,2.33089 49.62695,15.00585 20.26696,12.07885 20.78572,12.37029 9.21485,-2.55468 -24.19573,-31.20896 -52.84914,-51.37249 -79.853519,-19.53711 -1.341838,1.58173 -4.716649,12.6524 -12.078125,21.27539 -7.01542,5.9006 -13.728516,17.15657 -13.728516,19.13867 0,7.64523 -7.545287,13.71242 -15.222656,11.83203 -24.98217,-6.11871 -44.867029,-44.08053 -31.087891,-59.35156 5.459041,-6.04985 12.583984,-6.43963 12.583985,-0.68945 0,2.77587 2.340704,1.48962 6.77539,-3.72461 3.726433,-4.38142 20.753791,-21.27455 37.837891,-37.53907 37.112051,-35.331748 44.051901,-44.497302 48.937501,-64.644527 3.60684,-14.873764 9.24811,-23.232793 16.08203,-24.53125 0.51254,-0.09737 1.031,-0.154155 1.55664,-0.171875 z m 17.16992,16.359375 c 0.7575,0.01654 2.07497,0.615681 4.16211,1.595703 11.21434,5.270098 14.16813,30.482215 4.64649,39.654297 -9.86598,9.503698 -20.61923,6.832632 -29.75391,-7.388672 -10.04083,-20.670903 -0.082,-23.103304 4.11328,-18.1875 8.33225,9.234369 19.43803,2.635008 16.75,-9.953125 -0.70966,-3.323225 -1.03856,-5.007723 -0.49609,-5.535156 0.13562,-0.13183 0.32562,-0.191061 0.57812,-0.185547 z M 126.55273,150.7168 c 3.21427,0.064 7.14499,0.76962 8.01368,1.85937 l -7.32813,14.88086 -4.60351,-16.27539 c 0.54393,-0.25959 1.47852,-0.40552 2.5957,-0.45312 0.41894,-0.0179 0.86308,-0.0209 1.32226,-0.0117 z m -7.26562,0.31836 -10.98633,19.84179 c -1.73607,-4.51797 -1.2269,-3.77011 -4.26367,-11.67383 6.08053,-5.296 15.16314,-8.16411 15.25,-8.16796 z m 1.58984,0.73046 4.84961,15.89258 c -4.33461,-0.26305 -9.62199,0.49465 -15.26367,2.84571 z m 17.77149,2.33985 c 5.82242,2.47978 7.47993,4.15374 12.08984,7.40625 l -10.38476,8.89062 z m -2.25391,0.0566 1.92188,15.92187 c -3.42452,-1.17713 -6.19471,-1.84484 -9.39258,-2.04296 z m -33.83398,6.18164 c 1.44476,4.52447 2.32913,6.61823 4.02929,11.78711 -5.08349,2.99825 -8.575013,11.83577 -6.959161,15.5999 -4.564296,-6.95688 -6.213297,-16.67023 2.929871,-27.38701 z m 49.30273,2.25 0.51172,13.38086 c -2.82719,-1.81111 -6.67823,-3.24703 -10.69336,-4.85352 z m 1.5625,0.59375 7.81641,7.26172 -7.16992,5.8125 z m 8.78906,8.55664 1.69922,10.26758 -8.61914,-4.75586 z m 1.63282,1.23242 c 2.30759,2.73271 4.66176,5.42774 6.78906,7.96875 l -5.1211,1.70313 z m 7.47461,9.20899 2.39648,2.60937 5.49414,5.99024 -12.02539,-7.16407 z m -38.45508,67.47656 c 1.74908,0.19983 5.32958,3.56913 12.07226,9.91211 7.91147,7.44246 19.11199,16.47543 24.88867,20.07422 10.50302,6.54346 10.50273,6.54513 3.16016,15.74218 -4.03837,5.05837 -8.0278,13.01441 -8.86523,17.6836 -4.3782,24.41125 -28.47186,-14.34121 -32.07422,-51.58984 -0.74667,-7.72048 -1.1192,-11.58168 0.49219,-11.82032 0.10071,-0.0149 0.20956,-0.0153 0.32617,-0.002 z m 54.03515,43.49219 c 3.98512,0.0955 8.65485,1.72454 14.23828,4.74609 25.45961,13.77819 37.87652,36.70438 27.05469,49.95703 -4.76506,5.83544 -13.33507,4.2858 -40.88281,-7.40039 -22.64476,-9.60654 -23.03789,-10.05365 -19.7168,-22.37695 4.20997,-15.62173 9.10265,-23.47297 16.6543,-24.74414 0.84956,-0.143 1.7327,-0.20368 2.65234,-0.18164 z"
             transform="matrix(0.26458333,0,0,0.26458333,-4.9185432e-5,168.30671)"
             id="path4599"
             inkscape:connector-curvature="0"
             sodipodi:nodetypes="ccccscsscsccccccccccccccccccccccsccccccscssscsscccccccccccccsccccccccccccccccsccsccccsccccccccccccccccccccccccccccccccccccccccccccccccccccccccccccsccccccccccc" />
        </g>
      </g>
    </a>
  </g>
</svg>
